%YAML 1.1
%TAG !u! tag:unity3d.com,2011:
--- !u!114 &11400000
MonoBehaviour:
  m_ObjectHideFlags: 0
  m_PrefabParentObject: {fileID: 0}
  m_PrefabInternal: {fileID: 0}
  m_GameObject: {fileID: 0}
  m_Enabled: 1
  m_EditorHideFlags: 0
  m_Script: {fileID: 11500000, guid: 35fc1a6584efa41f38b85fc9dd9d264e, type: 3}
  m_Name: Settings
  m_EditorClassIdentifier: 
  m_bool_keys:
  - z_pref_lockBrushToFirst
  - z_pref_rebuildNormals
  - z_pref_rebuildCollisions
  - z_pref_lockBrushSettings
  - z_pref_additionalVertexStreams
  - z_pref_hideWireframe
  m_int_keys:
  - z_GIWorkflowMode
  - pushpull_brush_dir
  m_float_keys: []
  m_string_keys: []
  m_Color_keys:
  - z_pref_brushColor
  m_bool_values: 010101000101
  m_int_values: 0000000004000000
  m_float_values: []
  m_string_values: []
  m_Color_values:
  - {r: 0, g: 0.8, b: 1, a: 1}
